…
## Inspecting Fits

All `beezdemand_fixed` objects support the standard
[`tidy()`](https://generics.r-lib.org/reference/tidy.html),
[`glance()`](https://generics.r-lib.org/reference/glance.html),
[`augment()`](https://generics.r-lib.org/reference/augment.html), and
[`confint()`](https://rdrr.io/r/stats/confint.html) methods for
programmatic access to results.

### tidy(): Per-Subject Parameter Estimates

``` r

tidy(fit_hs)
#> # A tibble: 40 × 10
#>    id    term  estimate std.error statistic p.value component estimate_scale
#>    <chr> <chr>    <dbl>     <dbl>     <dbl>   <dbl> <chr>     <chr>         
#>  1 19    Q0       10.2      0.269        NA      NA fixed     natural       
#>  2 30    Q0        2.81     0.226        NA      NA fixed     natural       
#>  3 38    Q0        4.50     0.215        NA      NA fixed     natural       
#>  4 60    Q0        9.92     0.459        NA      NA fixed     natural       
#>  5 68    Q0       10.4      0.329        NA      NA fixed     natural       
#>  6 106   Q0        5.68     0.300        NA      NA fixed     natural       
#>  7 113   Q0        6.20     0.174        NA      NA fixed     natural       
#>  8 142   Q0        6.17     0.641        NA      NA fixed     natural       
#>  9 156   Q0        8.35     0.411        NA      NA fixed     natural       
#> 10 188   Q0        6.30     0.564        NA      NA fixed     natural       
#> # ℹ 30 more rows
#> # ℹ 2 more variables: term_display <chr>, estimate_internal <dbl>
```
…
glance(fit_hs)
#> # A tibble: 1 × 12
#>   model_class      backend equation k_spec     nobs n_subjects n_success n_fail
#>   <chr>            <chr>   <chr>    <chr>     <int>      <int>     <int>  <int>
#> 1 beezdemand_fixed legacy  hs       fixed (2)   146         10        10      0
#> # ℹ 4 more variables: converged <lgl>, logLik <dbl>, AIC <dbl>, BIC <dbl>
```

### augment(): Fitted Values and Residuals

``` r

augment(fit_hs)
#> # A tibble: 146 × 6
#>    id        x     y     k .fitted  .resid
#>    <chr> <dbl> <dbl> <dbl>   <dbl>   <dbl>
#>  1 19      0      10     2   10.2  -0.159 
#>  2 19      0.5    10     2    9.69  0.314 
#>  3 19      1      10     2    9.24  0.760 
#>  4 19      1.5     8     2    8.82 -0.819 
#>  5 19      2       8     2    8.42 -0.421 
#>  6 19      2.5     8     2    8.04 -0.0444
#>  7 19      3       7     2    7.69 -0.689 
#>  8 19      4       7     2    7.03 -0.0334
#>  9 19      5       7     2    6.45  0.554 
#> 10 19      6       6     2    5.92  0.0820
#> # ℹ 136 more rows
```

### confint(): Confidence Intervals

``` r

confint(fit_hs)
#> # A tibble: 40 × 6
#>    id    term  estimate conf.low conf.high level
#>    <chr> <chr>    <dbl>    <dbl>     <dbl> <dbl>
#>  1 19    Q0       10.2      9.63     10.7   0.95
#>  2 30    Q0        2.81     2.36      3.25  0.95
#>  3 38    Q0        4.50     4.08      4.92  0.95
#>  4 60    Q0        9.92     9.02     10.8   0.95
#>  5 68    Q0       10.4      9.75     11.0   0.95
#>  6 106   Q0        5.68     5.10      6.27  0.95
#>  7 113   Q0        6.20     5.85      6.54  0.95
#>  8 142   Q0        6.17     4.92      7.43  0.95
#>  9 156   Q0        8.35     7.54      9.15  0.95
#> 10 188   Q0        6.30     5.20      7.41  0.95
#> # ℹ 30 more rows
```
…
#>   Converged: 10 
#>   Failed: 0 
#>   Total observations: 146 
#> 
#> Parameter Summary (across subjects):
#>   Q0:
#>     Median: 6.2498 
#>     Range: [ 2.8074 , 10.3904 ]
#>   alpha:
#>     Median: 0.004251 
#>     Range: [ 0.001987 , 0.00785 ]
#> 
#> Per-subject coefficients:
#> -------------------------
#> # A tibble: 40 × 10
#>    id    term      estimate std.error statistic p.value component estimate_scale
#>    <chr> <chr>        <dbl>     <dbl>     <dbl>   <dbl> <chr>     <chr>         
#>  1 106   Q0         5.68     0.300           NA      NA fixed     natural       
#>  2 106   alpha      0.00628  0.000432        NA      NA fixed     natural       
#>  3 106   alpha_st…  0.0257   0.00176         NA      NA fixed     natural       
#>  4 106   k          2       NA               NA      NA fixed     natural       
#>  5 113   Q0         6.20     0.174           NA      NA fixed     natural       
#>  6 113   alpha      0.00199  0.000109        NA      NA fixed     natural       
#>  7 113   alpha_st…  0.00812  0.000447        NA      NA fixed     natural       
#>  8 113   k          2       NA               NA      NA fixed     natural       
#>  9 142   Q0         6.17     0.641           NA      NA fixed     natural       
#> 10 142   alpha      0.00237  0.000400        NA      NA fixed     natural       
#> # ℹ 30 more rows
#> # ℹ 2 more variables: term_display <chr>, estimate_internal <dbl>
```
…
plot_residuals(fit_hs)$fitted
#> NULL
```

## Predictions

### Default Predictions

[`predict()`](https://rdrr.io/r/stats/predict.html) with no arguments
returns fitted values at the observed prices:

``` r

predict(fit_hs)
#> # A tibble: 160 × 3
#>        x id    .fitted
#>    <dbl> <chr>   <dbl>
#>  1     0 19      10.2 
#>  2     0 30       2.81
#>  3     0 38       4.50
#>  4     0 60       9.92
#>  5     0 68      10.4 
#>  6     0 106      5.68
#>  7     0 113      6.20
#>  8     0 142      6.17
#>  9     0 156      8.35
#> 10     0 188      6.30
#> # ℹ 150 more rows
```

### Custom Price Grid

Supply `newdata` to predict at specific prices:

``` r

new_prices <- data.frame(x = c(0, 0.5, 1, 2, 5, 10, 20))
predict(fit_hs, newdata = new_prices)
#> # A tibble: 70 × 3
#>        x id    .fitted
#>    <dbl> <chr>   <dbl>
#>  1     0 19      10.2 
#>  2     0 30       2.81
#>  3     0 38       4.50
#>  4     0 60       9.92
#>  5     0 68      10.4 
#>  6     0 106      5.68
#>  7     0 113      6.20
#>  8     0 142      6.17
#>  9     0 156      8.35
#> 10     0 188      6.30
#> # ℹ 60 more rows
```
…
