Migration Guide: FitCurves to fit_demand_fixed • beezdemand
…
#>   Converged: 10 
#>   Failed: 0 
#>   Total observations: 146 
#> 
#> Parameter Summary (across subjects):
#>   Q0:
#>     Median: 6.2498 
#>     Range: [ 2.8074 , 10.3904 ]
#>   alpha:
#>     Median: 0.004251 
#>     Range: [ 0.001987 , 0.00785 ]
#> 
#> Per-subject coefficients:
#> -------------------------
#> # A tibble: 40 × 10
#>    id    term      estimate std.error statistic p.value component estimate_scale
#>    <chr> <chr>        <dbl>     <dbl>     <dbl>   <dbl> <chr>     <chr>         
#>  1 106   Q0         5.68     0.300           NA      NA fixed     natural       
#>  2 106   alpha      0.00628  0.000432        NA      NA fixed     natural       
#>  3 106   alpha_st…  0.0257   0.00176         NA      NA fixed     natural       
#>  4 106   k          2       NA               NA      NA fixed     natural       
#>  5 113   Q0         6.20     0.174           NA      NA fixed     natural       
#>  6 113   alpha      0.00199  0.000109        NA      NA fixed     natural       
#>  7 113   alpha_st…  0.00812  0.000447        NA      NA fixed     natural       
#>  8 113   k          2       NA               NA      NA fixed     natural       
#>  9 142   Q0         6.17     0.641           NA      NA fixed     natural       
#> 10 142   alpha      0.00237  0.000400        NA      NA fixed     natural       
#> # ℹ 30 more rows
#> # ℹ 2 more variables: term_display <chr>, estimate_internal <dbl>
…
