…
When the underlying NLS fit objects are available (from
`detailed = TRUE`), this method attempts to use
[`nlstools::confint2()`](https://rdrr.io/pkg/nlstools/man/confint2.html)
for more accurate profile-based intervals.

## Examples

``` r
# \donttest{
fit <- fit_demand_fixed(apt, equation = "hs", k = 2)
confint(fit)
#> # A tibble: 40 × 6
#>    id    term  estimate conf.low conf.high level
#>    <chr> <chr>    <dbl>    <dbl>     <dbl> <dbl>
#>  1 19    Q0       10.2      9.63     10.7   0.95
#>  2 30    Q0        2.81     2.36      3.25  0.95
#>  3 38    Q0        4.50     4.08      4.92  0.95
#>  4 60    Q0        9.92     9.02     10.8   0.95
#>  5 68    Q0       10.4      9.75     11.0   0.95
#>  6 106   Q0        5.68     5.10      6.27  0.95
#>  7 113   Q0        6.20     5.85      6.54  0.95
#>  8 142   Q0        6.17     4.92      7.43  0.95
#>  9 156   Q0        8.35     7.54      9.15  0.95
#> 10 188   Q0        6.30     5.20      7.41  0.95
#> # ℹ 30 more rows
confint(fit, level = 0.90)
#> # A tibble: 40 × 6
#>    id    term  estimate conf.low conf.high level
#>    <chr> <chr>    <dbl>    <dbl>     <dbl> <dbl>
#>  1 19    Q0       10.2      9.72     10.6    0.9
#>  2 30    Q0        2.81     2.44      3.18   0.9
#>  3 38    Q0        4.50     4.14      4.85   0.9
#>  4 60    Q0        9.92     9.17     10.7    0.9
#>  5 68    Q0       10.4      9.85     10.9    0.9
#>  6 106   Q0        5.68     5.19      6.18   0.9
#>  7 113   Q0        6.20     5.91      6.48   0.9
#>  8 142   Q0        6.17     5.12      7.23   0.9
#>  9 156   Q0        8.35     7.67      9.02   0.9
#> 10 188   Q0        6.30     5.38      7.23   0.9
#> # ℹ 30 more rows
…
