…
#>   Converged: 10 
#>   Failed: 0 
#>   Total observations: 146 
#> 
#> Parameter Summary (across subjects):
#>   Q0:
#>     Median: 6.2498 
#>     Range: [ 2.8074 , 10.3904 ]
#>   alpha:
#>     Median: 0.004251 
#>     Range: [ 0.001987 , 0.00785 ]
#> 
#> Per-subject coefficients:
#> -------------------------
#> # A tibble: 40 × 10
#>    id    term      estimate std.error statistic p.value component estimate_scale
#>    <chr> <chr>        <dbl>     <dbl>     <dbl>   <dbl> <chr>     <chr>         
#>  1 106   Q0         5.68     0.300           NA      NA fixed     natural       
#>  2 106   alpha      0.00628  0.000432        NA      NA fixed     natural       
#>  3 106   alpha_st…  0.0257   0.00176         NA      NA fixed     natural       
#>  4 106   k          2       NA               NA      NA fixed     natural       
#>  5 113   Q0         6.20     0.174           NA      NA fixed     natural       
#>  6 113   alpha      0.00199  0.000109        NA      NA fixed     natural       
#>  7 113   alpha_st…  0.00812  0.000447        NA      NA fixed     natural       
#>  8 113   k          2       NA               NA      NA fixed     natural       
#>  9 142   Q0         6.17     0.641           NA      NA fixed     natural       
#> 10 142   alpha      0.00237  0.000400        NA      NA fixed     natural       
#> # ℹ 30 more rows
#> # ℹ 2 more variables: term_display <chr>, estimate_internal <dbl>
tidy(fit)
#> # A tibble: 40 × 10
#>    id    term  estimate std.error statistic p.value component estimate_scale
#>    <chr> <chr>    <dbl>     <dbl>     <dbl>   <dbl> <chr>     <chr>         
#>  1 19    Q0       10.2      0.269        NA      NA fixed     natural       
#>  2 30    Q0        2.81     0.226        NA      NA fixed     natural       
#>  3 38    Q0        4.50     0.215        NA      NA fixed     natural       
#>  4 60    Q0        9.92     0.459        NA      NA fixed     natural       
#>  5 68    Q0       10.4      0.329        NA      NA fixed     natural       
#>  6 106   Q0        5.68     0.300        NA      NA fixed     natural       
#>  7 113   Q0        6.20     0.174        NA      NA fixed     natural       
#>  8 142   Q0        6.17     0.641        NA      NA fixed     natural       
#>  9 156   Q0        8.35     0.411        NA      NA fixed     natural       
#> 10 188   Q0        6.30     0.564        NA      NA fixed     natural       
#> # ℹ 30 more rows
#> # ℹ 2 more variables: term_display <chr>, estimate_internal <dbl>
…
#> Error in nlsModel(formula, mf, start, wts, scaleOffset = scOff, nDcentral = nDcntr) : 
#>   singular gradient matrix at initial parameter estimates
#> Error in numericDeriv(form[[3L]], names(ind), env, central = nDcentral) : 
#>   Missing value or an infinity produced when evaluating the model
#> Error in nlsModel(formula, mf, start, wts, scaleOffset = scOff, nDcentral = nDcntr) : 
#>   singular gradient matrix at initial parameter estimates
#> Error in nls(formula = (log(y)/log(10)) ~ (log(q0)/log(10)) + k * (exp(-alpha *  : 
#>   number of iterations exceeded maximum of 50
#> Error in numericDeriv(form[[3L]], names(ind), env, central = nDcentral) : 
#>   Missing value or an infinity produced when evaluating the model
#> Data casted as data.frame
#> Error in nlsModel(formula, mf, start, wts, scaleOffset = scOff, nDcentral = nDcntr) : 
#>   singular gradient matrix at initial parameter estimates
tidy(fit_g)   # group column prepended
#> # A tibble: 4,360 × 11
#>    gender id    term  estimate std.error statistic p.value component
#>    <chr>  <chr> <chr>    <dbl>     <dbl>     <dbl>   <dbl> <chr>    
#>  1 Female 475   Q0       11.0      1.19         NA      NA fixed    
#>  2 Female 476   Q0        1.86     0.162        NA      NA fixed    
#>  3 Female 477   Q0        3.93     0.903        NA      NA fixed    
#>  4 Female 478   Q0        8.18     1.21         NA      NA fixed    
#>  5 Female 479   Q0        4.89     0.461        NA      NA fixed    
#>  6 Female 480   Q0        5.02     0.542        NA      NA fixed    
#>  7 Female 481   Q0        3.57     0.297        NA      NA fixed    
#>  8 Female 482   Q0        3.11     0.302        NA      NA fixed    
#>  9 Female 483   Q0        5.89     0.428        NA      NA fixed    
#> 10 Female 484   Q0        5.00    NA            NA      NA fixed    
#> # ℹ 4,350 more rows
#> # ℹ 3 more variables: estimate_scale <chr>, term_display <chr>,
#> #   estimate_internal <dbl>
…
