…
# Grouped summary — statistics and plots faceted by group
data(apt_full)
desc_g <- get_descriptive_summary(apt_full, by = "gender")
desc_g$statistics
#> # A tibble: 51 × 9
#>    gender Price  Mean Median    SD PropZeros   NAs   Min   Max
#>    <chr>  <chr> <dbl>  <dbl> <dbl>     <dbl> <int> <dbl> <dbl>
#>  1 Female 0      5.08      5  4.11      0.09     0     0    50
#>  2 Female 0.25   4.77      4  3.97      0.15     0     0    40
#>  3 Female 0.5    4.59      4  3.77      0.16     0     0    30
#>  4 Female 1      4.41      4  3.58      0.16     0     0    20
#>  5 Female 1.5    4.14      4  3.41      0.2      0     0    20
#>  6 Female 2      3.86      4  3.09      0.2      0     0    20
#>  7 Female 2.5    3.61      3  2.95      0.22     0     0    15
#>  8 Female 3      3.3       3  2.71      0.21     0     0    15
#>  9 Female 4      2.81      3  2.43      0.24     0     0    15
#> 10 Female 5      2.45      2  2.16      0.26     0     0    10
#> # ℹ 41 more rows
…
